﻿object={
	name="castano wall gate"
	render_pass=MapUnderWater
	clamp_to_water_level=no
	generated_content=no
	layer="temp_layer"
	pdxmesh="castanor_wall_01_f_mesh"
	count=7
	transform="2232.679688 0.000000 2831.694824 0.000000 0.999970 0.000000 0.007716 1.000000 1.000000 1.000000
2060.688965 0.000000 2955.656738 0.000000 0.631915 0.000000 0.775038 1.000000 1.000000 1.000000
2491.037598 0.000000 2857.677979 0.000000 0.809916 0.000000 -0.586546 1.000000 1.000000 1.000000
2481.741211 0.000000 2894.822998 0.000000 -0.699450 0.000000 0.714681 1.000000 1.000000 1.000000
2185.950684 0.000000 2879.760986 0.000000 -0.563665 0.000000 0.826004 1.000000 1.000000 1.000000
2246.714844 0.000000 2884.839844 0.000000 -0.829567 0.000000 0.558406 1.000000 1.000000 1.000000
2223.605713 0.000000 2854.372559 0.000000 -0.997690 0.000000 0.067936 1.000000 1.000000 1.000000
"}
object={
	name="castanor wall 01"
	render_pass=MapUnderWater
	clamp_to_water_level=no
	generated_content=no
	layer="temp_layer"
	pdxmesh="castanor_wall_01_a_mesh"
	count=15
	transform="2544.640381 0.000000 2951.728516 0.000000 -0.282742 0.000000 0.959196 1.000000 1.000000 1.000000
2510.887695 0.000000 2815.039551 0.000000 0.698053 0.000000 0.716046 1.000000 1.000000 1.000000
2484.213623 0.000000 2740.472900 0.000000 0.157845 0.000000 0.987464 1.000000 1.000000 1.000000
2342.538818 0.000000 2788.983398 0.000000 0.009735 0.000000 0.999953 1.000000 1.000000 1.000000
2363.755127 0.000000 2784.319580 0.000000 -0.990439 0.000000 0.137951 1.000000 1.000000 1.000000
2205.991699 0.000000 2823.920410 0.000000 -0.093096 0.000000 0.995657 1.000000 1.000000 1.000000
2060.288574 0.000000 2862.350342 0.000000 0.742232 0.000000 0.670143 1.000000 1.000000 1.000000
2113.023193 0.000000 3017.640869 0.000000 -0.233422 0.000000 0.972375 1.000000 1.000000 1.000000
2163.823730 0.000000 3053.862061 0.000000 0.999959 0.000000 -0.009068 1.000000 1.000000 1.000000
2208.595703 0.000000 3074.473877 0.000000 -0.437722 0.000000 0.899110 1.000000 1.000000 1.000000
2060.510254 0.000000 2869.692139 0.000000 -0.736541 0.000000 0.676393 1.000000 1.000000 1.000000
2527.276611 0.000000 2751.934814 0.000000 -0.661608 0.000000 0.749850 1.000000 1.000000 1.000000
2528.324951 0.000000 2759.225586 0.000000 0.755778 0.000000 0.654827 1.000000 1.000000 1.000000
2501.523193 0.000000 2854.510986 0.000000 0.396008 0.000000 0.918247 1.000000 1.000000 1.000000
2483.013428 0.000000 2885.320068 0.000000 0.791500 0.000000 -0.611169 1.000000 1.000000 1.000000
"}
object={
	name="castanor wall 02"
	render_pass=MapUnderWater
	clamp_to_water_level=no
	generated_content=no
	layer="temp_layer"
	pdxmesh="castanor_wall_01_b_mesh"
	count=67
	transform="2174.480225 0.000000 2821.431641 0.000000 -0.181664 0.000000 0.983361 1.000000 1.000000 1.000000
2198.577881 0.000000 2822.852295 0.000000 -0.070711 0.000000 0.997497 1.000000 1.000000 1.000000
2224.593994 0.000000 2831.230225 0.000000 -0.078471 0.000000 0.996916 1.000000 1.000000 1.000000
2231.922852 0.000000 2831.778809 0.000000 0.000000 0.000000 1.000000 1.000000 1.000000 1.000000
2239.134277 0.000000 2830.917725 0.000000 0.101965 0.000000 0.994788 1.000000 1.000000 1.000000
2254.182129 0.000000 2822.929688 0.000000 0.235707 0.000000 0.971824 1.000000 1.000000 1.000000
2335.177246 0.000000 2789.185547 0.000000 0.000000 0.000000 1.000000 1.000000 1.000000 1.000000
2357.005615 0.000000 2787.128418 0.000000 0.240093 0.000000 0.970750 1.000000 1.000000 1.000000
2370.717285 0.000000 2782.276855 0.000000 0.127459 0.000000 0.991843 1.000000 1.000000 1.000000
2390.625732 0.000000 2763.572021 0.000000 -0.857283 0.000000 0.514846 1.000000 1.000000 1.000000
2469.710205 0.000000 2742.032959 0.000000 0.032160 0.000000 0.999483 1.000000 1.000000 1.000000
2477.133789 0.000000 2741.671631 0.000000 0.000000 0.000000 1.000000 1.000000 1.000000 1.000000
2491.096924 0.000000 2738.466797 0.000000 0.093582 0.000000 0.995612 1.000000 1.000000 1.000000
2512.525146 0.000000 2742.302246 0.000000 -0.115100 0.000000 0.993354 1.000000 1.000000 1.000000
2529.588379 0.000000 2766.698242 0.000000 0.772140 0.000000 0.635452 1.000000 1.000000 1.000000
2509.006836 0.000000 2842.107178 0.000000 0.610996 0.000000 0.791634 1.000000 1.000000 1.000000
2551.262207 0.000000 2954.670898 0.000000 -0.130879 0.000000 0.991398 1.000000 1.000000 1.000000
2063.961426 0.000000 2838.918457 0.000000 0.775291 0.000000 0.631604 1.000000 1.000000 1.000000
2064.334473 0.000000 2846.116699 0.000000 0.661059 0.000000 0.750334 1.000000 1.000000 1.000000
2058.708008 0.000000 2876.542969 0.000000 0.534593 0.000000 0.845110 1.000000 1.000000 1.000000
2045.394165 0.000000 2893.595947 0.000000 0.314704 0.000000 0.949190 1.000000 1.000000 1.000000
2040.138062 0.000000 2898.458984 0.000000 0.397227 0.000000 0.917721 1.000000 1.000000 1.000000
2035.908325 0.000000 2909.521240 0.000000 0.716774 0.000000 0.697307 1.000000 1.000000 1.000000
2037.099365 0.000000 2916.907471 0.000000 -0.608516 0.000000 0.793540 1.000000 1.000000 1.000000
2065.813477 0.000000 2942.475586 0.000000 -0.810072 0.000000 0.586330 1.000000 1.000000 1.000000
2063.147949 0.000000 2949.437988 0.000000 0.541307 0.000000 0.840825 1.000000 1.000000 1.000000
2060.466309 0.000000 2956.436279 0.000000 0.582198 0.000000 0.813047 1.000000 1.000000 1.000000
2059.842529 0.000000 2967.885986 0.000000 -0.641469 0.000000 0.767150 1.000000 1.000000 1.000000
2061.089844 0.000000 2974.893555 0.000000 -0.657893 0.000000 0.753112 1.000000 1.000000 1.000000
2130.023193 0.000000 3031.373291 0.000000 -0.232651 0.000000 0.972561 1.000000 1.000000 1.000000
2222.512207 0.000000 3084.168701 0.000000 -0.462086 0.000000 0.886835 1.000000 1.000000 1.000000
2495.358643 0.000000 2856.933350 0.000000 -0.065109 0.000000 0.997878 1.000000 1.000000 1.000000
2489.119141 0.000000 2869.308594 0.000000 0.689591 0.000000 0.724198 1.000000 1.000000 1.000000
2528.092285 0.000000 2772.995605 0.000000 -0.912749 0.000000 0.408521 1.000000 1.000000 1.000000
2055.306885 0.000000 2883.137451 0.000000 0.499807 0.000000 0.866137 1.000000 1.000000 1.000000
2050.857178 0.000000 2888.949463 0.000000 0.358394 0.000000 0.933570 1.000000 1.000000 1.000000
2047.542725 0.000000 2928.960205 0.000000 -0.199339 0.000000 0.979931 1.000000 1.000000 1.000000
2054.404053 0.000000 2931.575684 0.000000 -0.175959 0.000000 0.984397 1.000000 1.000000 1.000000
2061.080811 0.000000 2933.714844 0.000000 -0.150730 0.000000 0.988575 1.000000 1.000000 1.000000
2063.209229 0.000000 2981.673096 0.000000 -0.514065 0.000000 0.857751 1.000000 1.000000 1.000000
2065.405518 0.000000 2987.799561 0.000000 -0.659684 0.000000 0.751543 1.000000 1.000000 1.000000
2066.627197 0.000000 2995.264648 0.000000 -0.630542 0.000000 0.776155 1.000000 1.000000 1.000000
2068.597656 0.000000 3002.525635 0.000000 -0.591415 0.000000 0.806367 1.000000 1.000000 1.000000
2072.570068 0.000000 3008.384033 0.000000 -0.335295 0.000000 0.942113 1.000000 1.000000 1.000000
2078.561035 0.000000 3012.446045 0.000000 -0.256411 0.000000 0.966568 1.000000 1.000000 1.000000
2089.668945 0.000000 3014.386230 0.000000 0.161762 0.000000 0.986830 1.000000 1.000000 1.000000
2096.997559 0.000000 3012.848633 0.000000 0.064713 0.000000 0.997904 1.000000 1.000000 1.000000
2118.856445 0.000000 3021.882568 0.000000 -0.383784 0.000000 0.923423 1.000000 1.000000 1.000000
2124.096436 0.000000 3027.099609 0.000000 -0.392474 0.000000 0.919762 1.000000 1.000000 1.000000
2137.090576 0.000000 3032.812500 0.000000 0.011841 0.000000 0.999930 1.000000 1.000000 1.000000
2142.824951 0.000000 3040.807373 0.000000 -0.684069 0.000000 0.729418 1.000000 1.000000 1.000000
2144.494141 0.000000 3047.877197 0.000000 -0.567139 0.000000 0.823623 1.000000 1.000000 1.000000
2156.717285 0.000000 3055.474854 0.000000 0.208302 0.000000 0.978064 1.000000 1.000000 1.000000
2170.991455 0.000000 3053.770020 0.000000 0.000000 0.000000 1.000000 1.000000 1.000000 1.000000
2194.023438 0.000000 3057.430420 0.000000 0.033258 0.000000 0.999447 1.000000 1.000000 1.000000
2186.511475 0.000000 3058.014404 0.000000 0.041309 0.000000 0.999146 1.000000 1.000000 1.000000
2204.940430 0.000000 3068.160400 0.000000 -0.558992 0.000000 0.829173 1.000000 1.000000 1.000000
2268.674316 0.000000 2820.994629 0.000000 -0.054416 0.000000 0.998518 1.000000 1.000000 1.000000
2320.512695 0.000000 2790.504639 0.000000 0.176289 0.000000 0.984338 1.000000 1.000000 1.000000
2394.817871 0.000000 2757.720703 0.000000 0.384291 0.000000 0.923212 1.000000 1.000000 1.000000
2529.726562 0.000000 2942.906738 0.000000 -0.391997 0.000000 0.919966 1.000000 1.000000 1.000000
2586.223877 0.000000 2963.323975 0.000000 0.106669 0.000000 0.994295 1.000000 1.000000 1.000000
2202.198242 0.000000 2856.711426 0.000000 0.000000 0.000000 1.000000 1.000000 1.000000 1.000000
2209.298828 0.000000 2856.446533 0.000000 0.010711 0.000000 0.999943 1.000000 1.000000 1.000000
2238.352295 0.000000 2857.154541 0.000000 -0.195959 0.000000 0.980612 1.000000 1.000000 1.000000
2209.666748 0.000000 2891.364502 0.000000 -0.135447 0.000000 0.990785 1.000000 1.000000 1.000000
2202.605713 0.000000 2889.808105 0.000000 -0.092458 0.000000 0.995717 1.000000 1.000000 1.000000
"}
object={
	name="castanor wall 03"
	render_pass=MapUnderWater
	clamp_to_water_level=no
	generated_content=no
	layer="temp_layer"
	pdxmesh="castanor_wall_01_c_mesh"
	count=75
	transform="2524.319336 0.000000 2742.012207 0.000000 0.926372 0.000000 0.376610 1.000000 1.000000 1.000000
2141.670166 0.000000 3035.264404 0.000000 0.820009 0.000000 0.572352 1.000000 1.000000 1.000000
2036.816040 0.000000 2903.466553 0.000000 -0.823616 0.000000 0.567148 1.000000 1.000000 1.000000
2061.008301 0.000000 2856.130859 0.000000 -0.835987 0.000000 0.548749 1.000000 1.000000 1.000000
2065.848389 0.000000 2937.155029 0.000000 0.856905 0.000000 0.515474 1.000000 1.000000 1.000000
2212.114990 0.000000 2826.008057 0.000000 0.965488 0.000000 0.260447 1.000000 1.000000 1.000000
2187.280762 0.000000 2824.054688 0.000000 0.111856 0.000000 0.993724 1.000000 1.000000 1.000000
2213.041260 0.000000 3078.155762 0.000000 -0.167210 0.000000 0.985921 1.000000 1.000000 1.000000
2199.864990 0.000000 3058.688477 0.000000 -0.956343 0.000000 -0.292246 1.000000 1.000000 1.000000
2083.739502 0.000000 3014.728027 0.000000 -0.159864 0.000000 0.987139 1.000000 1.000000 1.000000
2108.000244 0.000000 3014.627686 0.000000 0.944325 0.000000 0.329016 1.000000 1.000000 1.000000
2202.639648 0.000000 3062.481201 0.000000 0.812249 0.000000 0.583310 1.000000 1.000000 1.000000
2218.170166 0.000000 3080.220947 0.000000 0.978590 0.000000 0.205820 1.000000 1.000000 1.000000
2226.783936 0.000000 3088.174072 0.000000 -0.205645 0.000000 0.978627 1.000000 1.000000 1.000000
2180.864258 0.000000 3056.916992 0.000000 -0.290023 0.000000 0.957020 1.000000 1.000000 1.000000
2176.933105 0.000000 3054.845459 0.000000 0.978281 0.000000 0.207283 1.000000 1.000000 1.000000
2150.599609 0.000000 3056.318604 0.000000 -0.133330 0.000000 0.991072 1.000000 1.000000 1.000000
2147.033447 0.000000 3053.411133 0.000000 -0.498723 0.000000 0.866761 1.000000 1.000000 1.000000
2103.547119 0.000000 3012.629395 0.000000 0.998509 0.000000 0.054595 1.000000 1.000000 1.000000
2041.836060 0.000000 2926.000977 0.000000 -0.291993 0.000000 0.956420 1.000000 1.000000 1.000000
2038.886963 0.000000 2922.196777 0.000000 -0.560345 0.000000 0.828259 1.000000 1.000000 1.000000
2062.673828 0.000000 2852.173584 0.000000 0.515713 0.000000 0.856761 1.000000 1.000000 1.000000
2192.603271 0.000000 2822.859375 0.000000 -0.994157 0.000000 0.107939 1.000000 1.000000 1.000000
2244.780273 0.000000 2828.993896 0.000000 0.235084 0.000000 0.971975 1.000000 1.000000 1.000000
2249.248291 0.000000 2826.141602 0.000000 -0.943498 0.000000 0.331378 1.000000 1.000000 1.000000
2289.894775 0.000000 2813.190186 0.000000 0.999988 0.000000 -0.004979 1.000000 1.000000 1.000000
2274.864502 0.000000 2821.153809 0.000000 0.035637 0.000000 0.999365 1.000000 1.000000 1.000000
2279.318848 0.000000 2819.639893 0.000000 0.306538 0.000000 0.951858 1.000000 1.000000 1.000000
2301.452637 0.000000 2813.285645 0.000000 0.235054 0.000000 0.971982 1.000000 1.000000 1.000000
2304.638672 0.000000 2809.965820 0.000000 0.570026 0.000000 0.821627 1.000000 1.000000 1.000000
2309.541992 0.000000 2798.696777 0.000000 0.434289 0.000000 0.900773 1.000000 1.000000 1.000000
2376.568604 0.000000 2780.548828 0.000000 0.155314 0.000000 0.987865 1.000000 1.000000 1.000000
2379.409424 0.000000 2777.320312 0.000000 -0.755938 0.000000 0.654643 1.000000 1.000000 1.000000
2381.550293 0.000000 2773.092773 0.000000 -0.916023 0.000000 0.401126 1.000000 1.000000 1.000000
2402.712158 0.000000 2750.182861 0.000000 -0.311377 0.000000 -0.950287 1.000000 1.000000 1.000000
2406.906006 0.000000 2746.832275 0.000000 -0.938142 0.000000 0.346251 1.000000 1.000000 1.000000
2399.274902 0.000000 2753.361084 0.000000 -0.922285 0.000000 0.386512 1.000000 1.000000 1.000000
2410.853271 0.000000 2744.838379 0.000000 0.113100 0.000000 0.993584 1.000000 1.000000 1.000000
2449.401855 0.000000 2740.217041 0.000000 0.136898 0.000000 0.990585 1.000000 1.000000 1.000000
2454.320801 0.000000 2739.324707 0.000000 0.998496 0.000000 -0.054817 1.000000 1.000000 1.000000
2459.025391 0.000000 2740.080566 0.000000 0.978388 0.000000 0.206775 1.000000 1.000000 1.000000
2463.333496 0.000000 2741.532959 0.000000 -0.143847 0.000000 0.989600 1.000000 1.000000 1.000000
2526.309570 0.000000 2746.023438 0.000000 0.778251 0.000000 0.627953 1.000000 1.000000 1.000000
2512.275146 0.000000 2794.726318 0.000000 -0.924138 0.000000 0.382060 1.000000 1.000000 1.000000
2437.417480 0.000000 2742.363281 0.000000 0.125856 0.000000 0.992049 1.000000 1.000000 1.000000
2511.890625 0.000000 2829.060303 0.000000 0.756916 0.000000 0.653512 1.000000 1.000000 1.000000
2487.708984 0.000000 2875.380615 0.000000 0.525354 0.000000 0.850884 1.000000 1.000000 1.000000
2485.395996 0.000000 2879.476562 0.000000 -0.880031 0.000000 0.474916 1.000000 1.000000 1.000000
2481.943848 0.000000 2891.060303 0.000000 0.746506 0.000000 -0.665379 1.000000 1.000000 1.000000
2487.202637 0.000000 2901.169189 0.000000 0.942012 0.000000 0.335579 1.000000 1.000000 1.000000
2483.022461 0.000000 2897.739502 0.000000 0.325379 0.000000 -0.945584 1.000000 1.000000 1.000000
2490.531250 0.000000 2904.185303 0.000000 -0.399032 0.000000 0.916937 1.000000 1.000000 1.000000
2493.388184 0.000000 2908.721680 0.000000 0.833045 0.000000 0.553206 1.000000 1.000000 1.000000
2493.699219 0.000000 2913.395508 0.000000 0.622455 0.000000 0.782656 1.000000 1.000000 1.000000
2503.871582 0.000000 2926.725586 0.000000 -0.908095 0.000000 -0.418765 1.000000 1.000000 1.000000
2499.887939 0.000000 2924.110840 0.000000 0.991182 0.000000 0.132509 1.000000 1.000000 1.000000
2495.694824 0.000000 2921.617432 0.000000 -0.373418 0.000000 0.927664 1.000000 1.000000 1.000000
2507.347168 0.000000 2929.719238 0.000000 -0.287685 0.000000 0.957725 1.000000 1.000000 1.000000
2512.022949 0.000000 2932.148438 0.000000 0.986367 0.000000 0.164557 1.000000 1.000000 1.000000
2525.015869 0.000000 2939.387695 0.000000 -0.980653 0.000000 -0.195754 1.000000 1.000000 1.000000
2515.876953 0.000000 2934.609619 0.000000 -0.397801 0.000000 0.917472 1.000000 1.000000 1.000000
2519.946045 0.000000 2937.340088 0.000000 -0.169496 0.000000 0.985531 1.000000 1.000000 1.000000
2534.388916 0.000000 2946.584961 0.000000 -0.240005 0.000000 0.970772 1.000000 1.000000 1.000000
2539.298096 0.000000 2948.949707 0.000000 -0.981510 0.000000 -0.191412 1.000000 1.000000 1.000000
2565.854980 0.000000 2960.083984 0.000000 0.036460 0.000000 0.999335 1.000000 1.000000 1.000000
2557.079346 0.000000 2957.097168 0.000000 0.962171 0.000000 0.272447 1.000000 1.000000 1.000000
2561.106445 0.000000 2959.130371 0.000000 -0.215669 0.000000 0.976467 1.000000 1.000000 1.000000
2571.023193 0.000000 2960.284668 0.000000 0.998088 0.000000 0.061815 1.000000 1.000000 1.000000
2575.595215 0.000000 2962.056885 0.000000 0.959679 0.000000 0.281098 1.000000 1.000000 1.000000
2579.899170 0.000000 2963.572266 0.000000 -0.084342 0.000000 0.996437 1.000000 1.000000 1.000000
2493.741455 0.000000 2917.730713 0.000000 -0.645090 0.000000 0.764106 1.000000 1.000000 1.000000
2243.068115 0.000000 2860.999268 0.000000 0.851158 0.000000 0.524909 1.000000 1.000000 1.000000
2196.605713 0.000000 2888.931152 0.000000 0.996976 0.000000 0.077706 1.000000 1.000000 1.000000
2185.670898 0.000000 2880.617432 0.000000 0.805322 0.000000 0.592838 1.000000 1.000000 1.000000
2187.587158 0.000000 2884.397217 0.000000 -0.466357 0.000000 0.884596 1.000000 1.000000 1.000000
"}
object={
	name="hadrians wall 01"
	render_pass=MapUnderWater
	clamp_to_water_level=no
	generated_content=no
	layer="temp_layer"
	pdxmesh="hadrians_wall_01_a_mesh"
	count=3
	transform="1193.098511 0.000000 2447.621826 0.000000 0.994611 0.000000 0.103675 1.000000 1.000000 1.000000
1207.549316 0.000000 2459.598877 0.000000 0.860425 0.000000 0.509578 1.000000 1.000000 1.000000
1187.984009 0.000000 2469.431885 0.000000 0.043291 0.000000 0.999063 1.000000 1.000000 1.000000
"}
object={
	name="hadrians wall 02"
	render_pass=MapUnderWater
	clamp_to_water_level=no
	generated_content=no
	layer="temp_layer"
	pdxmesh="hadrians_wall_01_b_mesh"
	count=6
	transform="1184.474731 0.000000 2449.115479 0.000000 0.000000 0.000000 1.000000 1.000000 1.000000 1.000000
1199.657715 0.000000 2452.371094 0.000000 -0.208422 0.000000 0.978039 1.000000 1.000000 1.000000
1204.750732 0.000000 2468.642578 0.000000 0.000000 0.000000 1.000000 1.000000 1.000000 1.000000
1178.706787 0.000000 2451.784912 0.000000 0.326007 0.000000 0.945367 1.000000 1.000000 1.000000
1204.514648 0.000000 2461.477051 0.000000 0.266368 0.000000 0.963871 1.000000 1.000000 1.000000
1198.554443 0.000000 2466.245605 0.000000 0.476732 0.000000 0.879049 1.000000 1.000000 1.000000
"}
object={
	name="hadrians wall 03"
	render_pass=MapUnderWater
	clamp_to_water_level=no
	generated_content=no
	layer="temp_layer"
	pdxmesh="hadrians_wall_01_c_mesh"
	count=8
	transform="1205.477051 0.000000 2455.697754 0.000000 -0.978443 0.000000 -0.206515 1.000000 1.000000 1.000000
1215.225708 0.000000 2456.411133 0.000000 -0.948432 0.000000 -0.316981 1.000000 1.000000 1.000000
1178.088745 0.000000 2456.943359 0.000000 -0.330231 0.000000 0.943900 1.000000 1.000000 1.000000
1182.593750 0.000000 2466.083984 0.000000 -0.099414 0.000000 0.995046 1.000000 1.000000 1.000000
1201.546997 0.000000 2467.410400 0.000000 0.276413 0.000000 0.961039 1.000000 1.000000 1.000000
1196.997070 0.000000 2462.093506 0.000000 -0.953522 0.000000 -0.301324 1.000000 1.000000 1.000000
1189.384033 0.000000 2448.374756 0.000000 -0.826384 0.000000 0.563106 1.000000 1.000000 1.000000
1196.027954 0.000000 2450.008057 0.000000 -0.808597 0.000000 -0.588363 1.000000 1.000000 1.000000
"}
object={
	name="hadrians wall 04"
	render_pass=MapUnderWater
	clamp_to_water_level=no
	generated_content=no
	layer="temp_layer"
	pdxmesh="hadrians_wall_01_d_mesh"
	count=7
	transform="1215.502075 0.000000 2461.436035 0.000000 0.000000 0.000000 1.000000 1.000000 1.000000 1.000000
1184.886353 0.000000 2453.016357 0.000000 -0.527948 0.000000 0.849277 1.000000 1.000000 1.000000
1189.947144 0.000000 2447.404541 0.000000 0.000000 0.000000 1.000000 1.000000 1.000000 1.000000
1202.626709 0.000000 2458.416260 0.000000 -0.372030 0.000000 0.928221 1.000000 1.000000 1.000000
1200.200684 0.000000 2456.309814 0.000000 0.000000 0.000000 1.000000 1.000000 1.000000 1.000000
1202.620117 0.000000 2455.455566 0.000000 -0.260303 0.000000 0.965527 1.000000 1.000000 1.000000
1198.014038 0.000000 2462.031982 0.000000 0.000000 0.000000 1.000000 1.000000 1.000000 1.000000
"}
object={
	name="mines"
	render_pass=MapUnderWater
	clamp_to_water_level=no
	generated_content=no
	layer="temp_layer"
	pdxmesh="building_special_mines_mesh"
	count=0
}
object={
	name="special_brihadeeswarar_temple"
	render_pass=MapUnderWater
	clamp_to_water_level=no
	generated_content=no
	layer="temp_layer"
	pdxmesh="building_special_brihadeeswarar_temple_mesh"
	count=0
}
object={
	name="special_building_petra"
	render_pass=MapUnderWater
	clamp_to_water_level=no
	generated_content=no
	layer="temp_layer"
	pdxmesh="building_special_petra_mesh"
	count=0
}
object={
	name="special_cathedral_generic"
	render_pass=MapUnderWater
	clamp_to_water_level=no
	generated_content=no
	layer="temp_layer"
	pdxmesh="building_special_cathedral_generic_mesh"
	count=0
}
object={
	name="special_cathedral_pagan"
	render_pass=MapUnderWater
	clamp_to_water_level=no
	generated_content=no
	layer="temp_layer"
	pdxmesh="building_special_cathedral_pagan_mesh"
	count=0
}
object={
	name="special_colosseum"
	render_pass=MapUnderWater
	clamp_to_water_level=no
	generated_content=no
	layer="temp_layer"
	pdxmesh="building_special_colosseum_mesh"
	count=0
}
object={
	name="special_great_mosque_of_djenne"
	render_pass=MapUnderWater
	clamp_to_water_level=no
	generated_content=no
	layer="temp_layer"
	pdxmesh="building_special_great_mosque_of_djenne_mesh"
	count=0
}
object={
	name="special_great_mosque_of_mecca"
	render_pass=MapUnderWater
	clamp_to_water_level=no
	generated_content=no
	layer="temp_layer"
	pdxmesh="building_special_great_mosque_of_mecca_mesh"
	count=0
}
object={
	name="special_notre_dame"
	render_pass=MapUnderWater
	clamp_to_water_level=no
	generated_content=no
	layer="temp_layer"
	pdxmesh="building_special_notre_dame_mesh"
	count=0
}
object={
	name="special_palace_of_aachen"
	render_pass=MapUnderWater
	clamp_to_water_level=no
	generated_content=no
	layer="temp_layer"
	pdxmesh="building_special_palace_of_aachen_mesh"
	count=0
}
object={
	name="special_pyramids_giza"
	render_pass=MapUnderWater
	clamp_to_water_level=no
	generated_content=no
	layer="temp_layer"
	pdxmesh="building_special_pyramids_giza_mesh"
	count=0
}
object={
	name="special_stonehenge"
	render_pass=MapUnderWater
	clamp_to_water_level=no
	generated_content=no
	layer="temp_layer"
	pdxmesh="building_indian_castle_02_mesh"
	count=0
}
object={
	name="special_tower_of_london"
	render_pass=MapUnderWater
	clamp_to_water_level=no
	generated_content=no
	layer="temp_layer"
	pdxmesh="building_special_tower_of_london_mesh"
	count=1
	transform="927.932922 0.000000 2671.254150 0.000000 0.000000 0.000000 1.000000 1.000000 1.000000 1.000000
"}
